1 10 20
100 200 125
201 210 89
900 1000 174
3886 3886 39
7296 7296 40
5191 1215 238
5357 5357 29
842 842 42
2805 2805 85
7747 4940 262
9502 9502 167
4090 4090 65
8468 5564 262
488 488 23
7864 1141 262
6040 3732 236
2799 2799 67
1570 1570 123
4144 2799 238
3727 3227 238
7815 6299 257
5564 5564 117
4444 651 238
2443 2443 46
3061 3061 49
2984 2984 23
645 645 101
5244 3202 238
9574 244 262
2515 2515 41
9262 1309 262
1219 1219 133
9225 5074 262
6847 6847 63
3419 3419 150
4334 1900 238
7587 4144 262
9962 9962 92
6305 14 262
1167 1167 32
6299 1383 262
8438 8438 159
9574 2653 262
5244 3314 238
6888 6888 107
6792 3732 262
4461 4461 96
5991 1167 238
8919 8919 48
3263 3263 75
9711 7640 260
7460 376 262
7727 3727 262
3263 622 217
1570 1570 123
4369 4369 47
3042 2937 173
2631 2631 191
8703 8703 110
9711 9225 260
2984 2984 23
4936 1089 238
1691 1691 136
3882 3882 101
5564 5564 117
6305 6305 63
7872 5472 262
1397 1397 35
7405 2631 262
5316 1943 238
2653 278 209
4721 1219 238
9885 3204 262
7405 7405 133
9960 5422 262
2797 2797 67
5472 826 238
9417 6039 262
7380 5 262
1251 1251 27
8284 8284 128
5806 5806 143
5163 5163 55
545 545 44
3431 3431 119
6344 2805 262
5840 5840 99
4697 2785 238
8108 8108 159
9262 9262 110
7782 7782 40
7864 244 262
5085 4459 210
6514 6514 50
6344 1900 262
7519 7519 89
4090 4090 65
9809 9809 167
7518 7518 89
990 990 99
2120 1570 180
545 545 44
9711 9528 198
8229 1397 262
8734 8734 141
2937 2937 54
5591 1531 238
2799 2799 67
9962 1943 262
8229 2414 262
7640 7640 32
7555 7555 133
3866 3866 26
5472 5472 130
3143 3143 106
488 488 23
9586 645 262
4087 4087 158
7901 7901 40
6514 1638 262
2797 2797 67
622 622 88
622 622 88
3419 2566 217
4936 4936 135
602 602 18
7867 7867 53
5236 5236 148
8308 8308 66
6039 2120 238
9262 9262 110
7460 2999 262
3799 3799 70
3161 3161 155
9960 9960 92
3431 651 217
732 732 96
8316 6040 262
3364 3227 181
8646 8646 35
4369 4369 47
4170 4170 127
9561 9561 79
6598 3372 262
2514 2514 41
3042 3042 111
7371 7371 45
7248 7248 19
2291 2291 152
3568 3227 194
9528 9528 53
8938 2999 262
9262 1900 262
7864 2797 262
7072 4170 262
3799 1215 238
3202 3202 62
4619 1638 238
2201 2201 139
7872 7297 239
622 622 88
8284 8284 128
9277 6642 260
9528 3866 262
3656 2120 217
5991 5236 236
5357 4100 215
4617 4162 215
4488 813 238
5244 5244 104
2694 2694 67
5837 2797 238
7815 2705 262
4090 4090 65
9809 9077 260
7782 4087 262
7069 7069 151
4162 4162 65
7864 7864 146
1141 1141 107
6491 6491 169
4162 4090 189
8938 8938 48
6299 4790 262
6598 2479 262
9141 8316 247
4090 4090 65
3790 3204 238
6792 5244 262
7380 2369 262
9668 2443 262
4602 4100 215
2984 2984 23
6768 4125 262
5564 3042 238
9885 991 262
5071 5071 86
2811 2258 209
4334 3568 238
